Project 1: Wrangling, Exploration, Visualization
…
ncol(TeenPregnancy)

## [1] 4

nrow(CrimeRates)

## [1] 51

ncol(CrimeRates)

## [1] 8

CrimeRates %>% left_join(TeenPregnancy, by = c(state = "State"))

## # A tibble: 51 x 11
##    state violent murder poverty single metro white highschool CivilWar Church
##    <chr>   <dbl>  <dbl>   <dbl>  <dbl> <dbl> <dbl>      <dbl> <chr>     <dbl>
##  1 AK        761   9       9.10   14.3  41.8  75.2       86.6 O            26
##  2 AL        780  11.6    17.4    11.5  67.4  73.5       66.9 C            46
##  3 AR        593  10.2    20      10.7  44.7  82.9       66.3 C            45
##  4 AZ        715   8.60   15.4    12.1  84.7  88.6       78.7 O            33
##  5 CA       1078  13.1    18.2    12.5  96.7  79.3       76.2 U            28
##  6 CO        567   5.80    9.90   12.1  81.8  92.5       84.4 O            25
##  7 CT        456   6.30    8.5    10.1  95.7  89         79.2 U            25
##  8 DE        686   5      10.2    11.4  82.7  79.4       77.5 U            35
##  9 FL       1206   8.90   17.8    10.6  93    83.5       74.4 C            32
## 10 GA        723  11.4    13.5    13    67.7  70.8       70.9 C            39
## #  with 41 more rows, and 1 more variable: Teen <dbl>

CrimeRates %>% anti_join(TeenPregnancy, by = c(state = "State"))

## # A tibble: 1 x 8
##   state violent murder poverty single metro white highschool
##   <chr>   <dbl>  <dbl>   <dbl>  <dbl> <dbl> <dbl>      <dbl>
## 1 DC       2922   78.5    26.4   22.1   100  31.8       73.1

CrimeRates %>% semi_join(TeenPregnancy, by = c(state = "State"))

## # A tibble: 50 x 8
##    state violent murder poverty single metro white highschool
##    <chr>   <dbl>  <dbl>   <dbl>  <dbl> <dbl> <dbl>      <dbl>
##  1 AK        761   9       9.10   14.3  41.8  75.2       86.6
##  2 AL        780  11.6    17.4    11.5  67.4  73.5       66.9
##  3 AR        593  10.2    20      10.7  44.7  82.9       66.3
##  4 AZ        715   8.60   15.4    12.1  84.7  88.6       78.7
##  5 CA       1078  13.1    18.2    12.5  96.7  79.3       76.2
##  6 CO        567   5.80    9.90   12.1  81.8  92.5       84.4
##  7 CT        456   6.30    8.5    10.1  95.7  89         79.2
##  8 DE        686   5      10.2    11.4  82.7  79.4       77.5
##  9 FL       1206   8.90   17.8    10.6  93    83.5       74.4
## 10 GA        723  11.4    13.5    13    67.7  70.8       70.9
## #  with 40 more rows
…
